Seurat pipeline for Trisomy data git – Trisomy scRNA-seq
…
head(markers)

Code

write.csv(markers, file.path(objects_dir, glue("wilcox_markers_{cluster_resolution}.csv")))

#check of top 10 cluster markers for each cluster
top10_markers <- markers %>%
  group_by(cluster) %>%
  slice_max(n = 10, order_by = avg_log2FC)

print(top10_markers)

# A tibble: 120 × 7
# Groups:   cluster [12]
       p_val avg_log2FC pct.1 pct.2 p_val_adj cluster gene           
       <dbl>      <dbl> <dbl> <dbl>     <dbl> <fct>   <chr>          
 1 0              0.807 0.655 0.475 0         0       HCG22          
 2 0              0.737 0.716 0.541 0         0       MIR503HG       
 3 0              0.662 0.422 0.288 0         0       IGSF21         
 4 4.63e-179      0.623 0.302 0.215 1.37e-174 0       WNT5A          
 5 3.15e-180      0.618 0.304 0.217 9.35e-176 0       DPP4           
 6 0              0.608 0.999 0.986 0         0       P2RY12         
 7 0              0.599 0.856 0.698 0         0       ENSG00000286403
 8 5.40e-282      0.571 0.465 0.345 1.60e-277 0       PTPN14         
 9 0              0.571 0.683 0.527 0         0       PLXDC1         
10 0              0.569 0.925 0.788 0         0       ENSG00000249738
# ℹ 110 more rows
…
